module gitlab.com/suresh-attaluri/proximity-hw

go 1.14

require (
	github.com/go-openapi/errors v0.20.0
	github.com/go-openapi/loads v0.20.2
	github.com/go-openapi/runtime v0.19.28
	github.com/go-openapi/spec v0.20.3
	github.com/go-openapi/strfmt v0.20.1
	github.com/go-openapi/swag v0.19.15
	github.com/go-openapi/validate v0.20.2
	github.com/jessevdk/go-flags v1.5.0
	github.com/rs/zerolog v1.22.0
	golang.org/x/net v0.0.0-20210521195947-fe42d452be8f
)
